…
- Function `filter()` It using for filter columns

```
starwars %>% 
  select(name,height) %>%
  filter(height > 20)
```
```
# A tibble: 81 x 2
   name               height
   <chr>               <int>
 1 Luke Skywalker        172
 2 C-3PO                 167
 3 R2-D2                  96
 4 Darth Vader           202
 5 Leia Organa           150
 6 Owen Lars             178
 7 Beru Whitesun lars    165
 8 R5-D4                  97
 9 Biggs Darklighter     183
10 Obi-Wan Kenobi        182
# ... with 71 more rows
```
…
